﻿nom,url,description,,
Delectable,http://www.ecogex.com/delectable/,Delectable is a showcase of simple and adapted websites.,,
The Noun Project,https://thenounproject.com,The Noun Project is a website that aggregates and catalogs symbols that are created and uploaded by graphic designers around the world,,
The useless web,http://www.theuselessweb.com/,"Take me to a useless website, please",,
Linklist,http://linkli.st/,"Welcome to Linklist—a new way to collect, organize, and share lists with links.",,
Web is dead,http://www.nova.fr/radionova/podcast-the-web-is-dead,"Le web est mort, vive le web!",,
Aquilnet,https://www.aquilenet.fr/,"Fournisseur d'Accès Internet enregistré à l'ARCEP (Autorité de Régulation des Communications Electroniques et des Postes), l'association Aquilenet fournit du vrai Internet.",,
Toile Libre,https://www.toile-libre.org/,"Toile-Libre est une association qui propose des services d'hébergement internet à prix libre, en utilisant les technologies et logiciels libres.",,
Project Gutenberg,http://www.gutenberg.org/,"Project Gutenberg was the first provider of free electronic books, or eBooks.",,
Framasoft,https://framasoft.org/,"Framasoft est un réseau d'éducation populaire, issu du monde éducatif, consacré principalement au logiciel libre.",,s
Freesound,https://freesound.org/,"Freesound aims to create a huge collaborative database of audio snippets, samples, recordings, bleeps, ... released under Creative Commons licenses that allow their reuse. ",,
Send,https://send.firefox.com/,"Envoyez des fichiers de façon sécurisée, confidentielle et chiffrée, via un lien qui expire automatiquement pour que vos informations ne restent pas en ligne indéfiniment.",,
"Etienne Ozeray, Pour un design graphique libre",http://www.etienneozeray.fr/libre-blog/,Blog destiné à regrouper mes recherches pour mon mémoire portant sur les relations entre design graphique et culture libre.,,
Metapolator,http://metapolator.com/home/,Metapolator is an open web tool for making many fonts.,,
Linuxgraphic,http://www.linuxgraphic.org/wp/,"Linuxgraphic est un site web francophone traitant des ressources graphiques pour systèmes GNU/Linux et plus généralement des logiciels graphiques libres.
Source wikipedia : https://fr.wikipedia.org/wiki/Linuxgraphic
",,
SourceForge,https://sourceforge.net/?SetFreedomCookie,SourceForge is an Open Source community resource dedicated to helping open source projects be as successful as possible,,
AFGRAL (Association Francophone des Graphistes Libres),http://afgral.org,"« L’AFGRAL est une association créée 2011 qui a pour objectif la promotion et le développement des outils et des productions libres du monde du graphisme ou de la création visuelle.

L’adhésion de l’association est ouverte à toute personne qui souhaite poursuivre cet objectif.

Les activités de l’association sont :

    Participation et organisation d’événements de promotions
    Production de contenu, en particulier pour la prise en main des logiciels, en collaboration, par exemple, avec FlossManuals francophone
    Développement des logiciels et collaboration aux équipes de développement
    Ateliers et formations »
",,
Surfaces Utiles,http://surfaces-utiles.org/,"Surfaces Utiles est un terrain vague, une friche ou un jardin où l’on cultive et promeut une hétérogénéité de pratiques artistiques, littéraires, (typo)graphiques et techniques. C’est un espace éditorial convivial qui se construit grâce à la complicité de ses contributeurs.",,
"Libre Objet, Diverted Derived Design",https://books.libreobjet.org/,"We hope that this book can be a base for teaching and learning about open source product design; a collective understanding of what one should know today to get started and join the movement; a reference students, amateurs and educators can have in their back pocket when they go out to explain what they are passionate about.",,
Libre Objet,https://libreobjet.org/,"As a group of industrial and graphic designers, hackers and artists, recently gathered together under the name Libre Objet, we all share a common question about open source industrial design, processes and products resulting from our work, with the aim of providing tools for accessing a free philosophy applied to the manufacture of objects.",,
La Perruque,http://la-perruque.org/,"La Perruque est une revue à prix libre qui édite et diffuse des spécimens typographiques.
 
  D’étranges formats glanés chez les imprimeurs définissent le modèle économique de sa publication.
 
 Imprimé en marge d’impressions offset, chaque numéro de la revue constitue le spécimen d’un caractère typographique. L’ensemble des numéros tisse un fil entre les contributions des dessinateurs de caractères et graphistes.
 
 Lieu de villégiature en ligne des contributions, ce site internet propose aussi de rendre visibles les processus de création des caractères ainsi que les éléments qui définissent les contours de la revue.
",,
Webibli,http://www.webibli.fr/,Webibli est un site de prêt de livres spécialisés dans le web. ,,
Gimp,https://www.gimp.org/," GIMP is a cross-platform image editor available for GNU/Linux, OS X, Windows and more operating systems. It is free software, you can change its source code and distribute your changes.",,
Scribus,https://www.scribus.net,"Welcome to Scribus, a page layout program for Linux, FreeBSD, PC-BSD, NetBSD, OpenBSD, Solaris, OpenIndiana, Debian GNU/Hurd, Mac OS X, OS/2 Warp 4, eComStation, Haiku and Windows.",,
Inkscape,http://inkscape.fr/,"Inkscape est un éditeur de graphismes vectoriels libre de qualité professionnelle fonctionnant sous Windows, Mac OS X et Gnu/Linux.",,
OLA (Outils Libres Alternatifs),http://www.outilslibresalternatifs.org/,Outils Libres Alternatifs est une initiative dont l'objectif est la promotion et la diffusion d'outils libres pour la création.,,
Utopies Concrètes,http://utopies-concretes.org,"Ce site est un manifeste. Annuaire/cartographie. Libre, réplicable, indépendant, autogéré. Des alternatives et utopies concrètes.",,
Agenda du Libre,https://www.agendadulibre.org/,Un simple agenda des manifestations autour du Logiciel Libre.,,
Open Source Publishing,http://osp.kitchen/,OSP makes graphic design using only free and open source software—pieces of software that invite their users to take part in their elaboration.,,
Framalibre,https://framalibre.org/,Annuaire du Libre. ,,
Protonmail,https://protonmail.com/fr/,"Un service d'email sécurisé avec une sécurité sans précédent. Notre but est de construire un Internet respectueux de la vie privée, protégé des cyberattaques. ",,
Thunderbird,https://www.mozilla.org/fr/thunderbird/,Thunderbird est une application de messagerie facile à configurer et à personnaliser — et elle comporte de nombreuses fonctionnalités très pratiques !,,
Lightning,https://addons.mozilla.org/fr/thunderbird/addon/lightning/,Gérez votre emploi du temps quotidien directement dans Thunderbird !,,
Keepass,http://keepass.fr,Keepass est le logiciel qu’il vous faut pour stocker tous vos mots de passe.,,
"Faites confiance à Edward Snowden, changez vos mots de passe !",https://www.franceinter.fr/culture/faites-confiance-a-edward-snowden-changez-vos-mots-de-passe,"Edward Snowden, ""le plus grand héros / traître / figure historique américaine"", était l'invité de John Oliver dans Last Week Tonight (sur HBO) . La rencontre est assez épatante - nécessaire, car rien n'a vraiment changé dans le comportement des gens depuis que les révélations de Snowden sur les pratiques de surveillance de la NSA . Faire rencontrer Edward Snowden et John Oliver (l'un de meilleurs pédagogues aujourd'hui sur les écrans américains) permet de rendre accessible, finalement, le discours de l'ex-agent secret.",,
FFDN - FAI associatifs,https://www.ffdn.org/en/members-fdn-federation,"La fédération FDN regroupe des Fournisseurs d'Accès à Internet associatifs se reconnaissant dans des valeurs communes : bénévolat, solidarité, fonctionnement démocratique et à but non lucratif; défense et promotion de la neutralité du Net.",,
Café vie privée / Chiffrofête / Cryptoparty,https://café-vie-privée.fr/," Nous appartenons à un mouvement citoyen mondial décentralisé. Nous organisons des événements sur Paris et sa banlieue proche.

Le terme de cryptoparty peut être francisé sous le terme de chiffrofête qui se veut une traduction moins connotée de ce terme. Ce type d’événement est également appelé les cafés vie privée.

Les outils techniques qui permettent de conserver une vie privée sur Internet où nous sommes constamment espionnés et surveillés (par les publicités, les réseaux sociaux, les gouvernements…) ne doivent pas être l’apanage d’une petite poignée de gens plus habiles que les autres avec l’informatique.
Chacun est en droit de s’approprier, à la hauteur de son niveau de compréhension, de ses besoins, de ses envies, ses différents outils.
Les chiffrofêtes sont donc des événements dédiés à l’apprentissage de la sécurité des communications en environnement numérique (Internet, mais également téléphoniques (SMS)).

Le maître-mot étant la pédagogie. ",,
Cryptoparty,https://www.cryptoparty.in/," CryptoParties are free and open for everyone, but especially ​those without prior knowledge, who haven't yet attended one.

CryptoParty is a decentralized movement with events happening all over the world. The goal is to pass on knowledge about protecting yourself in the digital space. This can include encrypted communication, preventing being tracked while browsing the web, and general security advice regarding computers and smartphones.

To try the tools and apps directly at the CryptoParty, bring your laptop or smartphone.

Most of the content on cryptoparty.in uses the english language, and it is a wiki so you can help by editing it. ",,
typothèque.interstices.io,http://typotheque.interstices.io/,"  typothèque.interstices.io  Ce site est une sélection de caractères typographiques sous licences libres. Leurs licences vous offrent une totale liberté d'étude, d'usage, de modification et de distribution. ",,
"Sébastien Broca, Utopie du logiciel libre ",http://lepassagerclandestin.fr/fileadmin/assets/catalog/essais/Utopie_logiciel_libre__Broca__Le_passager_clandestin.pdf,"Né dans les années 1980 de la révolte de hackers contre la privatisation du code informatique, le mouvement du logiciel libre ne semblait pas destiné à renouveler nos imaginaires politiques. Les valeurs et les pratiques du Libre ont pourtant gagné d’autres domaines, dessinant peu à peu une véritable « utopie concrète »",,
Les ateliers Webmaker,https://github.com/MozillaWebmakerFR/Ateliers,"Internet, comment ça marche ? C'est quoi, vraiment, un site web ? Est-ce que ma sécurité et ma vie privée sont vraiment mises en danger quand je navigue en ligne ? Les ateliers Webmaker sont conçus pour répondre à ces questions de manière ludique et accessible. Nous proposons deux thématiques :

    les ateliers “Jeux autour de la protection de la vie privée en ligne” vous donneront les clés de base nécessaires pour comprendre comment mieux protéger vos données sur Internet : se prémunir contre les traqueurs, choisir un mot de passe sécurisé, comprendre comment vos données peuvent être divulguées
    les ateliers “Initiation à la programmation de site web avec HTML et CSS” vous feront découvrir ce qui se cache derrière l'affichage d'une page web grâce l'apprentissage des bases du langage HTML (qui structure le contenu de la page) et du langage CSS (qui gère l'apparence de la page).

Nos ateliers sont ouverts à tou-te-s et sont destinés aux débutant-e-s. Seul prérequis ? Avoir déjà navigué sur Internet !",,
Device Privacy Tips,https://spreadprivacy.com/tag/device-privacy-tips/,Protect your privacy on your devices. ,,
Lightbeam,https://www.mozilla.org/fr/lightbeam/,"Lightbeam est une extension pour Firefox qui fait appel à des visualisations interactives pour vous montrer avec quels sites tiers vous communiquez sans le savoir. À mesure que vous naviguez, Lightbeam vous révèlera les coulisses du Web d’aujourd’hui, y compris les parties les moins visibles pour l’utilisateur moyen. ",,
Panopticlick,https://panopticlick.eff.org/about#defend-against,Panopticlick is a research project designed to better uncover the tools and techniques of online trackers and test the efficacy of privacy add-ons.,,
Am I Unique?,https://amiunique.org,"With this web site, we aim at providing users with some basic information about their configuration and how trackable it is. We also want to exploit the data we collect to advise users about how they can be more similar to others and thus be less trackable. ",,
 AmIUnique recommended tools,https://addons.mozilla.org/fr/firefox/collections/plaperdr/amiunique-recommended-tools/,"You will find here recommended tools to better protect your privacy against different methods of tracking (cookies, fingerprinting...). More details are in the Tools section of the AmIUnique website.",,
Do Not Track ,https://donottrack-doc.com/fr/,"Do Not Track est une série documentaire personnalisée
consacrée à la vie privée et à l'économie du Web.",,
WikiPapier,https://gitlab.com/EtienneOz/WikiPapier,"

Generate a custom printable encyclopædia from Wikipedia articles as pdf.
",,
LaTex,https://www.latex-project.org/,LaTeX is a high-quality typesetting system; it includes features designed for the production of technical and scientific documentation. LaTeX is the de facto standard for the communication and publication of scientific documents. LaTeX is available as free software.,,
FontForge,https://fontforge.github.io/en-US/,FontForge is a free and open source font editor brought to you by a community of fellow type lovers. ,,
Blender,https://www.blender.org,"Blender is the free and open source 3D creation suite. It supports the entirety of the 3D pipeline—modeling, rigging, animation, simulation, rendering, compositing and motion tracking, even video editing and game creation. Advanced users employ Blender’s API for Python scripting to customize the application and write specialized tools; often these are included in Blender’s future releases. Blender is well suited to individuals and small studios who benefit from its unified pipeline and responsive development process. ",,
"Aaron Swartz, Celui qui pourrait changer le monde, B42-77",http://editions-b42.com/books/celui-qui-pourrait-changer-le-monde/,"Aaron Swartz (1986-2013) était programmeur informatique, essayiste et hacker-activiste. Convaincu que l’accès à la connaissance constitue le meilleur outil d’émancipation et de justice, il consacra sa vie à la défense de la « culture libre ». Il joua notamment un rôle décisif dans la création de Reddit, des flux RSS, dans le développement des licences Creative Commons ou encore lors des manifestations contre le projet de loi SOPA (Stop Online Piracy Act), qui visait à restreindre les libertés sur Internet. ",,
Back Office ,http://www.revue-backoffice.com/,"Back Office répond à un état de fait : malgré le nombre croissant d’ouvrages dédiés au design graphique dans le contexte francophone, peu de recherches abordent de front les enjeux du numérique. Tandis qu’en langue anglaise, l’histoire de l’informatique, la philosophie du numérique, l’archéologie des médias ou les software studies (études logicielles) font l’objet de nombreuses publications, qu’en est-il de leur réception en langue française ?",,
Back Cover,http://editions-b42.com/back-cover/,"Back Cover Cover

propose des réflexions, des analyses critiques et historiques, des expériences individuelles et collectives dans les domaines du design graphique, de la typographie, de l'illustration et plus largement des arts visuels. Chaque numéro regroupe des contributions d'acteurs internationaux (graphistes, typographes, historiens de l'art, artistes...) sous différentes formes : interviews, journal de bord, textes théoriques… ",,
Pure Data ,https://puredata.info/,"Pure Data (or just Pd) is an open source visual programming language for multimedia. Its main distribution (aka Pd Vanilla) is developed by Miller Puckette. Pd-L2ork/Purr-Data is an alternative distribution (originally based on the now unmaintained, dead and deprecated Pd-Extended project), with a revamped GUI and many included external libraries.",,
metaflop,https://www.metaflop.com/,"Metaflop is an easy to use web application for modulating your own fonts. Metaflop uses Metafont, which allows you to easily customize a font within the given parameters and generate a large range of font families with very little effort.",,
OSP-foundry,http://ospublish.constantvzw.org/foundry/,,,
The League of Moveable Type,https://www.theleagueofmoveabletype.com/," We're done with the tired old fontstacks of yesteryear. The web is no longer limited, and now it's time to raise our standards. Since 2009, The League has given only the most well-made, free & open-source, @font-face ready fonts.",,
Velvetyne (VTF),http://www.velvetyne.fr/,"We are VTF, or the Velvetyne Type Foundry. We design and distribute free and open source typefaces since 2010. We organise ass-kicking workshops for humans and computers.",,
UrlDropper ,http://www.etienneozeray.fr/UrlDropper/,All you need is links.,,
"

Brutalist Websites",http://brutalistwebsites.com/," In its ruggedness and lack of concern to look comfortable or easy, Brutalism can be seen as a reaction by a younger generation to the lightness, optimism, and frivolity of today's web design.",,
graien resizeable,https://essenmitsosse.de/pixel/,,,
ninja,http://utopies-concretes.org/#/fr/ninja,Clique sur la baguette magique pour afficher un site au hasard parmi les 3392 sites des Utopies Concrètes,,
Radio Garden,http://radio.garden,,,
l’Air du Bois,https://www.lairdubois.fr/plans/,L'Air du Bois est une plateforme Open Source de partage collaboratif ouverte à tous les amoureux du travail du bois.,,
Usable,https://gitlab.com/esadhar/usable,Library of libre tools for creation.,,
Unilist,http://unilist.raphaelbastide.com/,"Unilist, or ⋃nilist, is a simple and light page for copying Unicode characters.
It is inspired by copypastecharacter.com but without advertising and with a free license.",,
:,http://x20xx.com/,,,
Super Pixel Quest,http://superpixelquest.com/,,,
Pointer Pointer,http://www.pointerpointer.com/,by @jonathanpuckey,,
? Fucking Windows ?,http://www.fucking-windows.com/,,,
"I think that conversations are the best, biggest thing that Free Software has to offer its user",http://conversations.tools/,Conversations is an extensive collection of dialogues between developers and designers involved in the wider ecosystem of Libre Graphics. ,,
fontain,https://www.fontain.org/,"fontain a font-collection-system and a font-collection.

",,
Libre Projects,"http://libreprojects.net/#favs=joindiaspora-com,owncloud,openstreetmap,jamendo,cloud9,plos,wikipedia,nextcloud","Les services web que vous trouverez sur cette page ont pour objectif principal la liberté d’usage et la collaboration - ils utilisent une licence MIT, GNU AGPL, Creative Commons ou une autres licences semblables",,
A Dark Room,http://adarkroom.doublespeakgames.com/,A Minimalist Text Adventure ,,
Lichess,https://lichess.org/,Jeu d’échecs gratuit en ligne,,
The House ,http://the-house.arturkot.pl/,"I've wanted to create a game since a long time. You know - one of those cool things you'd like try. :) When I started working on this project I had only basic knowledge about JS. Very basic. I didn't even know how to define an array and JS objects and methods were some kind of mystery. Thanks to this game my skills have developed tremendously. I'm still far from calling myself ""pro JS dev"" but I've got siginficantly closer.",,
Browsmos,http://stepheneisenhauer.com/demos/browsmos/,"Browsmos is a game the web browser, made entirely using HTML5, and inspired heavily by the gameplay of Osmos. The rules are simple; click to propel yourself around, and try to absorb smaller cells until you become the biggest. Watch out for larger cells, or they will absorb you!",,
Browser Quest,http://browserquest.mozilla.org/,BrowserQuest is a HTML5/JavaScript multiplayer game experiment.,,
Yitork,http://exoticorn.de/yirtok/,by Dennis Ranke. Dodge the bullets and shoot the enemies. Collect shields to prevent losing a life when hit and to receive a 50% bonus on all score you generate. Collect coins or shields for 1000 points.,,
Element Dot,http://pok5.de/elementdots/,A JavaScript Canvas experiment.,,
Arena5,http://kevs3d.co.uk/dev/arena5/,HTML5 game by Kevin Roast,,
Robots Are People Too ,http://raptjs.com/play#/rapt/,"RAPT is a cooperative platformer written in HTML5, and is meant to be played with a friend. Get both players on the goal at the same time to win (the goal is marked by four black triangles). For a harder challenge, try collecting all the golden cogs in all the levels. ",,
Achtung die Kurve,http://stravid.com/projects/achtung-die-kurve/," The goal of the game is to survive as long as possible. You and your friends share the keyboard to control the line. The lines are constantly moving forward. The players can only adjust the direction of the line.

A player loses if his line touches a line or the border of the game. He then has to wait for the start of the next round to play again. For every player you survive you get a point.

Achtung die Kurve is played on a single screen, so make sure you have some friends around! ",,
Harmony,http://mrdoob.com/projects/harmony/,,,
MindMup,https://www.mindmup.com/,"MindMup is a frictionless online mind map creator, developed by Sauf Pompiers Ltd. ",,
Je n'ai rien à cacher.,http://jenairienacacher.fr/,"En fait si, et vous également !",,
Computed Layout,http://computedlayout.tumblr.com/,"HTML and CSS are now powerful enough to design and print complex publications, and some designers and hackers embrace scripting as a design tool. This website introduces projects that experiment this design process, focusing on issues and tricks to achieve this new generation of publications.",,
Contrôle tes données,https://controle-tes-donnees.net/,Notre vie privée est en danger : agissons maintenant ! ,,
,radar.squat.net,"An agenda free of commercial interest.
Created by a community of groups announcing their own events, where the dominant power doesn't decide if it's worth a mention.
A tool we build together, to organise, socialise, educate.
A tool designed not to track its users, but break from the 'facebook-like' gated communities and to promote open sharing.",,
,https://nobodysbusiness.wordpress.com/,Nobody’s Business is an open-source platform for the sharing of artistic practices in the Performing Arts.,,
,http://everybodystoolbox.net/index.php?title=Accueil,"Everybodys is a data base and a library, a toolbox and a game creator, a publication house, a score container, a site for distribution and for long term investigatory discussions. It is a platform for the development of tools and content, for research and performance, for exchange and desire. ",,
